[
 {
   "no": 1,
   "category": "bread",
   "subcategory": "breads",
   "product_name": "Butter Sugar",
   "image_1": "",
   "image_2": ""
 },
 {
   "no": 2,
   "category": "bread",
   "subcategory": "breads",
   "product_name": "Bank Of Chocolate",
   "image_1": "BANK_OF_CHOCOLATE.jpg",
   "image_2": ""
 },
 {
   "no": 3,
   "category": "bread",
   "subcategory": "breads",
   "product_name": "Cheese Stick",
   "image_1": "",
   "image_2": ""
 },
 {
   "no": 4,
   "category": "bread",
   "subcategory": "breads",
   "product_name": "Floss",
   "image_1": "C_s_Flosss.jpg",
   "image_2": ""
 },
 {
   "no": 5,
   "category": "bread",
   "subcategory": "breads",
   "product_name": "Fire Floss",
   "image_1": "FireFloss.jpg",
   "image_2": ""
 },
 {
   "no": 6,
   "category": "bread",
   "subcategory": "breads",
   "product_name": "Hokkaido Dome",
   "image_1": "",
   "image_2": ""
 },
 {
   "no": 7,
   "category": "bread",
   "subcategory": "breads",
   "product_name": "Double Impact",
   "image_1": "",
   "image_2": ""
 },
 {
   "no": 8,
   "category": "bread",
   "subcategory": "breads",
   "product_name": "Hamtaro",
   "image_1": "",
   "image_2": ""
 },
 {
   "no": 9,
   "category": "bread",
   "subcategory": "breads",
   "product_name": "Meet The Cheese",
   "image_1": "",
   "image_2": ""
 },
 {
   "no": 10,
   "category": "bread",
   "subcategory": "breads",
   "product_name": "T2A",
   "image_1": "",
   "image_2": ""
 },
 {
   "no": 11,
   "category": "bread",
   "subcategory": "breads",
   "product_name": "Cheese Pillow",
   "image_1": "",
   "image_2": ""
 },
 {
   "no": 12,
   "category": "bread",
   "subcategory": "breads",
   "product_name": "D'Diva",
   "image_1": "D_Diva.jpg",
   "image_2": ""
 },
 {
   "no": 13,
   "category": "bread",
   "subcategory": "breads",
   "product_name": "Beef Milano",
   "image_1": "Beef_Milano.jpg",
   "image_2": ""
 },
 {
   "no": 14,
   "category": "bread",
   "subcategory": "breads",
   "product_name": "Blueberry Rocky Milk",
   "image_1": "Blueberry_Rocky_Milk.jpg",
   "image_2": ""
 },
 {
   "no": 15,
   "category": "bread",
   "subcategory": "breads",
   "product_name": "Floss N Roll",
   "image_1": "Flosss_n_Roll.jpg",
   "image_2": ""
 },
 {
   "no": 16,
   "category": "bread",
   "subcategory": "breads",
   "product_name": "Tiny Eq",
   "image_1": "",
   "image_2": ""
 },
 {
   "no": 17,
   "category": "bread",
   "subcategory": "breads",
   "product_name": "Caffe Uno",
   "image_1": "Caffe_Uno.jpg",
   "image_2": ""
 },
 {
   "no": 18,
   "category": "bread",
   "subcategory": "breads",
   "product_name": "Choco Pan",
   "image_1": "",
   "image_2": ""
 },
 {
   "no": 19,
   "category": "bread",
   "subcategory": "breads",
   "product_name": "Choco Man",
   "image_1": "",
   "image_2": ""
 },
 {
   "no": 20,
   "category": "bread",
   "subcategory": "breads",
   "product_name": "Twilight",
   "image_1": "Twilight.jpg",
   "image_2": ""
 },
 {
   "no": 21,
   "category": "bread",
   "subcategory": "breads",
   "product_name": "Banana Tigress",
   "image_1": "BANANA_TIGERS.jpg",
   "image_2": ""
 },
 {
   "no": 22,
   "category": "bread",
   "subcategory": "breads",
   "product_name": "New Pizza",
   "image_1": "",
   "image_2": ""
 },
 {
   "no": 23,
   "category": "bread",
   "subcategory": "breads",
   "product_name": "New Cheese Boat",
   "image_1": "Cheese_Boat.jpg",
   "image_2": ""
 },
 {
   "no": 24,
   "category": "bread",
   "subcategory": "breads",
   "product_name": "New Banana Lekker",
   "image_1": "Banana_Lekker.jpg",
   "image_2": ""
 },
 {
   "no": 25,
   "category": "bread",
   "subcategory": "breads",
   "product_name": "Sausage Boat",
   "image_1": "Sausage_Boat.jpg",
   "image_2": ""
 },
 {
   "no": 26,
   "category": "bread",
   "subcategory": "breads",
   "product_name": "Oreo Cream Cheese",
   "image_1": "Oreo_Cream_Cheese.jpg",
   "image_2": ""
 },
 {
   "no": 27,
   "category": "bread",
   "subcategory": "breads",
   "product_name": "Jacky O'Pizza",
   "image_1": "Jacky__O_Pizza.jpg",
   "image_2": ""
 },
 {
   "no": 28,
   "category": "bread",
   "subcategory": "breads",
   "product_name": "Sausage Fiesta",
   "image_1": "Sausage_Fiesta.jpg",
   "image_2": ""
 },
 {
   "no": 29,
   "category": "bread",
   "subcategory": "breads",
   "product_name": "Choco Fla",
   "image_1": "",
   "image_2": ""
 },
 {
   "no": 30,
   "category": "bread",
   "subcategory": "breads",
   "product_name": "Double Cheese",
   "image_1": "Double_Cheese.jpg",
   "image_2": ""
 },
 {
   "no": 31,
   "category": "bread",
   "subcategory": "breads",
   "product_name": "Binoq Fire",
   "image_1": "BinoQ_Fire.jpg",
   "image_2": ""
 },
 {
   "no": 32,
   "category": "bread",
   "subcategory": "breads",
   "product_name": "Mexican Choco",
   "image_1": "Mexican_Choco.jpg",
   "image_2": ""
 },
 {
   "no": 33,
   "category": "bread",
   "subcategory": "breads",
   "product_name": "Richie Cheese",
   "image_1": "",
   "image_2": ""
 },
 {
   "no": 34,
   "category": "bread",
   "subcategory": "breads",
   "product_name": "Lucky Red Bean",
   "image_1": "Lucky_Red_Bean.jpg",
   "image_2": ""
 },
 {
   "no": 35,
   "category": "bread",
   "subcategory": "breads",
   "product_name": "Almond Blanc",
   "image_1": "Almond_Blanc.jpg",
   "image_2": ""
 },
 {
   "no": 36,
   "category": "bread",
   "subcategory": "breads",
   "product_name": "Choco Meyses",
   "image_1": "Choco_Meyses.jpg",
   "image_2": ""
 },
 {
   "no": 37,
   "category": "bread",
   "subcategory": "breads",
   "product_name": "Rendang Floss",
   "image_1": "",
   "image_2": ""
 },
 {
   "no": 38,
   "category": "bread",
   "subcategory": "breads",
   "product_name": "Ciabatta Chocolate",
   "image_1": "",
   "image_2": ""
 },
 {
   "no": 39,
   "category": "bread",
   "subcategory": "breads",
   "product_name": "Ciabatta Cheese",
   "image_1": "",
   "image_2": ""
 },
 {
   "no": 40,
   "category": "bread",
   "subcategory": "breads",
   "product_name": "Beef & Cheese",
   "image_1": "",
   "image_2": ""
 },
 {
   "no": 41,
   "category": "bread",
   "subcategory": "breads",
   "product_name": "Choco Lava",
   "image_1": "Choco_Lava.jpg",
   "image_2": ""
 },
 {
   "no": 42,
   "category": "bread",
   "subcategory": "breads",
   "product_name": "Ciabatta Pizza",
   "image_1": "Ciabatta_Pizza.jpg",
   "image_2": ""
 },
 {
   "no": 43,
   "category": "bread",
   "subcategory": "breads",
   "product_name": "Choconut Cheese Roll",
   "image_1": "Choconut_Cheese_Roll.jpg",
   "image_2": ""
 },
 {
   "no": 44,
   "category": "bread",
   "subcategory": "breads",
   "product_name": "Tiramisu Bun",
   "image_1": "",
   "image_2": ""
 },
 {
   "no": 45,
   "category": "bread",
   "subcategory": "breads",
   "product_name": "Milo Bun",
   "image_1": "",
   "image_2": ""
 },
 {
   "no": 46,
   "category": "bread",
   "subcategory": "breads",
   "product_name": "Greentea Bun",
   "image_1": "",
   "image_2": ""
 },
 {
   "no": 47,
   "category": "bread",
   "subcategory": "breads",
   "product_name": "Say Cheeze!",
   "image_1": "",
   "image_2": ""
 },
 {
   "no": 48,
   "category": "bread",
   "subcategory": "breads",
   "product_name": "Matcha Choco Bun",
   "image_1": "",
   "image_2": ""
 },
 {
   "no": 49,
   "category": "bread",
   "subcategory": "breads",
   "product_name": "Choco Crunch",
   "image_1": "",
   "image_2": ""
 },
 {
   "no": 50,
   "category": "bread",
   "subcategory": "breads",
   "product_name": "Nut Nougat",
   "image_1": "",
   "image_2": ""
 },
 {
   "no": 51,
   "category": "bread",
   "subcategory": "breads",
   "product_name": "Almond Custard",
   "image_1": "",
   "image_2": ""
 },
 {
   "no": 52,
   "category": "bread",
   "subcategory": "breads",
   "product_name": "Rolling Floss",
   "image_1": "",
   "image_2": ""
 },
 {
   "no": 53,
   "category": "bread",
   "subcategory": "breads",
   "product_name": "Meat Supreme",
   "image_1": "",
   "image_2": ""
 },
 {
   "no": 54,
   "category": "bread",
   "subcategory": "breads",
   "product_name": "Smoke Double Cheese",
   "image_1": "",
   "image_2": ""
 },
 {
   "no": 55,
   "category": "bread",
   "subcategory": "breads",
   "product_name": "Nori Edamame Cheese",
   "image_1": "",
   "image_2": ""
 },
 {
   "no": 56,
   "category": "bread",
   "subcategory": "breads",
   "product_name": "Japanese Curry Bun",
   "image_1": "",
   "image_2": ""
 },
 {
   "no": 57,
   "category": "bread",
   "subcategory": "breads",
   "product_name": "Golden Salted Bun",
   "image_1": "",
   "image_2": ""
 },
 {
   "no": 58,
   "category": "bread",
   "subcategory": "breads",
   "product_name": "Cinnamon Star",
   "image_1": "",
   "image_2": ""
 },
 {
   "no": 59,
   "category": "bread",
   "subcategory": "breads",
   "product_name": "Smoked Beef & Cheese",
   "image_1": "",
   "image_2": ""
 },
 {
   "no": 60,
   "category": "bread",
   "subcategory": "breads",
   "product_name": "Baguette",
   "image_1": "",
   "image_2": ""
 },
 {
   "no": 61,
   "category": "danish",
   "subcategory": "subdanish",
   "product_name": "Curry Puff",
   "image_1": "",
   "image_2": ""
 },
 {
   "no": 62,
   "category": "danish",
   "subcategory": "subdanish",
   "product_name": "Choco Croissant",
   "image_1": "Chocolate_Croissant.jpg",
   "image_2": ""
 },
 {
   "no": 63,
   "category": "danish",
   "subcategory": "subdanish",
   "product_name": "Croissant",
   "image_1": "",
   "image_2": ""
 },
 {
   "no": 64,
   "category": "danish",
   "subcategory": "subdanish",
   "product_name": "Choco De Franch",
   "image_1": "Choco_de_Franch.jpg",
   "image_2": ""
 },
 {
   "no": 65,
   "category": "danish",
   "subcategory": "subdanish",
   "product_name": "Chocostick",
   "image_1": "Choco_Stick.jpg",
   "image_2": ""
 },
 {
   "no": 66,
   "category": "danish",
   "subcategory": "subdanish",
   "product_name": "Toasted Cheese",
   "image_1": "Toasted_Cheese.jpg",
   "image_2": ""
 },
 {
   "no": 67,
   "category": "danish",
   "subcategory": "subdanish",
   "product_name": "Fire Croissant",
   "image_1": "",
   "image_2": ""
 },
 {
   "no": 68,
   "category": "danish",
   "subcategory": "subdanish",
   "product_name": "White Choc Stick",
   "image_1": "",
   "image_2": ""
 },
 {
   "no": 69,
   "category": "danish",
   "subcategory": "subdanish",
   "product_name": "Banana Strdldof",
   "image_1": "",
   "image_2": ""
 },
 {
   "no": 70,
   "category": "danish",
   "subcategory": "subdanish",
   "product_name": "Naked Bar",
   "image_1": "",
   "image_2": ""
 },
 {
   "no": 71,
   "category": "danish",
   "subcategory": "subdanish",
   "product_name": "Red Bean De Franch",
   "image_1": "",
   "image_2": ""
 },
 {
   "no": 72,
   "category": "danish",
   "subcategory": "subdanish",
   "product_name": "Sugar Bar",
   "image_1": "",
   "image_2": ""
 },
 {
   "no": 73,
   "category": "danish",
   "subcategory": "subdanish",
   "product_name": "Sausage Middleton",
   "image_1": "Sausage_Middleton.jpg",
   "image_2": ""
 },
 {
   "no": 74,
   "category": "danish",
   "subcategory": "subdanish",
   "product_name": "New Tuna Cheese Puff",
   "image_1": "Tuna_Cheese_Puff.jpg",
   "image_2": ""
 },
 {
   "no": 75,
   "category": "danish",
   "subcategory": "subdanish",
   "product_name": "Pretzel Cheese",
   "image_1": "Pretzel_Cheese.jpg",
   "image_2": ""
 },
 {
   "no": 76,
   "category": "danish",
   "subcategory": "subdanish",
   "product_name": "Butterfly Puff",
   "image_1": "",
   "image_2": ""
 },
 {
   "no": 77,
   "category": "danish",
   "subcategory": "subdanish",
   "product_name": "Pretzel Twist",
   "image_1": "Pretzel_Twist.jpg",
   "image_2": ""
 },
 {
   "no": 78,
   "category": "danish",
   "subcategory": "subdanish",
   "product_name": "Banana Pie",
   "image_1": "Banana_Choco_Pie.jpg",
   "image_2": ""
 },
 {
   "no": 79,
   "category": "danish",
   "subcategory": "subdanish",
   "product_name": "Golden Croissant",
   "image_1": "Golden_Croissant.jpeg",
   "image_2": ""
 },
 {
   "no": 80,
   "category": "danish",
   "subcategory": "subdanish",
   "product_name": "D-Choco Croisant",
   "image_1": "",
   "image_2": ""
 },
 {
   "no": 81,
   "category": "danish",
   "subcategory": "subdanish",
   "product_name": "Greentea Croisant Mini Red Bean",
   "image_1": "",
   "image_2": ""
 },
 {
   "no": 82,
   "category": "danish",
   "subcategory": "subdanish",
   "product_name": "Pain Duo Chocolate",
   "image_1": "",
   "image_2": ""
 },
 {
   "no": 83,
   "category": "danish",
   "subcategory": "subdanish",
   "product_name": "Jalapeno Cheese Saussage",
   "image_1": "",
   "image_2": ""
 },
 {
   "no": 84,
   "category": "danish",
   "subcategory": "subdanish",
   "product_name": "Tuna Chilli Puff",
   "image_1": "Tuna_Chili_Puff.jpg",
   "image_2": ""
 },
 {
   "no": 85,
   "category": "danish",
   "subcategory": "subdanish",
   "product_name": "Tuna Egg Croisant",
   "image_1": "",
   "image_2": ""
 },
 {
   "no": 86,
   "category": "danish",
   "subcategory": "subdanish",
   "product_name": "Twist Cheese",
   "image_1": "",
   "image_2": ""
 },
 {
   "no": 87,
   "category": "danish",
   "subcategory": "subdanish",
   "product_name": "Ultimate Choco",
   "image_1": "",
   "image_2": ""
 },
 {
   "no": 88,
   "category": "danish",
   "subcategory": "subdanish",
   "product_name": "Lemon White Chocolate",
   "image_1": "",
   "image_2": ""
 },
 {
   "no": 89,
   "category": "danish",
   "subcategory": "subdanish",
   "product_name": "Pink Berry Croisant",
   "image_1": "",
   "image_2": ""
 },
 {
   "no": 90,
   "category": "danish",
   "subcategory": "subdanish",
   "product_name": "Matcha Almond Croisant",
   "image_1": "",
   "image_2": ""
 },
 {
   "no": 91,
   "category": "danish",
   "subcategory": "subdanish",
   "product_name": "Choco Peanut Croisant",
   "image_1": "",
   "image_2": ""
 },
 {
   "no": 92,
   "category": "danish",
   "subcategory": "subdanish",
   "product_name": "Pizza Angelo",
   "image_1": "",
   "image_2": ""
 },
 {
   "no": 93,
   "category": "danish",
   "subcategory": "subdanish",
   "product_name": "Sweet Peach Pie",
   "image_1": "",
   "image_2": ""
 },
 {
   "no": 94,
   "category": "danish",
   "subcategory": "subdanish",
   "product_name": "Choco Love Pie",
   "image_1": "",
   "image_2": ""
 },
 {
   "no": 95,
   "category": "toast",
   "subcategory": "breads",
   "product_name": "Blueberry Twist",
   "image_1": "",
   "image_2": ""
 },
 {
   "no": 96,
   "category": "toast",
   "subcategory": "breads",
   "product_name": "Brothers",
   "image_1": "",
   "image_2": ""
 },
 {
   "no": 97,
   "category": "toast",
   "subcategory": "breads",
   "product_name": "Choco Chips Bun",
   "image_1": "",
   "image_2": ""
 },
 {
   "no": 98,
   "category": "toast",
   "subcategory": "breads",
   "product_name": "Choco Raisin Half",
   "image_1": "Choco_Raisin.jpg",
   "image_2": ""
 },
 {
   "no": 99,
   "category": "toast",
   "subcategory": "breads",
   "product_name": "Choco Raisin Whole",
   "image_1": "Choco_Raisin.jpg",
   "image_2": ""
 },
 {
   "no": 100,
   "category": "toast",
   "subcategory": "breads",
   "product_name": "Choconut Twist",
   "image_1": "",
   "image_2": ""
 },
 {
   "no": 101,
   "category": "toast",
   "subcategory": "breads",
   "product_name": "Dinner Roll",
   "image_1": "",
   "image_2": ""
 },
 {
   "no": 102,
   "category": "toast",
   "subcategory": "",
   "product_name": "Eq Cheese",
   "image_1": "EQ_Cheese.jpg",
   "image_2": ""
 },
 {
   "no": 103,
   "category": "toast",
   "subcategory": "",
   "product_name": "Mocha Meyses",
   "image_1": "Mocha_Meyses.jpg",
   "image_2": ""
 },
 {
   "no": 104,
   "category": "toast",
   "subcategory": "",
   "product_name": "Naked Bun",
   "image_1": "",
   "image_2": ""
 },
 {
   "no": 105,
   "category": "toast",
   "subcategory": "",
   "product_name": "Naked Whole Meal",
   "image_1": "",
   "image_2": ""
 },
 {
   "no": 106,
   "category": "toast",
   "subcategory": "",
   "product_name": "Premium Naked Toast",
   "image_1": "Naked_Premium_Toast.jpg",
   "image_2": ""
 },
 {
   "no": 107,
   "category": "toast",
   "subcategory": "",
   "product_name": "Premium White Toast",
   "image_1": "",
   "image_2": ""
 },
 {
   "no": 108,
   "category": "toast",
   "subcategory": "",
   "product_name": "Raisin Bun",
   "image_1": "",
   "image_2": ""
 },
 {
   "no": 109,
   "category": "toast",
   "subcategory": "",
   "product_name": "Raisin Sun",
   "image_1": "",
   "image_2": ""
 },
 {
   "no": 110,
   "category": "toast",
   "subcategory": "",
   "product_name": "Raisin Sun Whole",
   "image_1": "",
   "image_2": ""
 },
 {
   "no": 111,
   "category": "toast",
   "subcategory": "",
   "product_name": "Soft Cheese",
   "image_1": "Soft_Cheese.jpg",
   "image_2": ""
 },
 {
   "no": 112,
   "category": "toast",
   "subcategory": "",
   "product_name": "Whole Meal Toast",
   "image_1": "Whole_Meal_Toast.jpg",
   "image_2": ""
 },
 {
   "no": 113,
   "category": "dry_cake",
   "subcategory": "",
   "product_name": "Anniv Choco Pie",
   "image_1": "",
   "image_2": ""
 },
 {
   "no": 114,
   "category": "dry_cake",
   "subcategory": "",
   "product_name": "Anniv Pandan Leaf",
   "image_1": "",
   "image_2": ""
 },
 {
   "no": 115,
   "category": "dry_cake",
   "subcategory": "",
   "product_name": "Anniv-Banana Island Long",
   "image_1": "",
   "image_2": ""
 },
 {
   "no": 116,
   "category": "dry_cake",
   "subcategory": "",
   "product_name": "Anniv-Banana Island Slice",
   "image_1": "",
   "image_2": ""
 },
 {
   "no": 117,
   "category": "dry_cake",
   "subcategory": "",
   "product_name": "Anniv-Cheezee Long",
   "image_1": "",
   "image_2": ""
 },
 {
   "no": 118,
   "category": "dry_cake",
   "subcategory": "",
   "product_name": "Anniv-Choco Long",
   "image_1": "",
   "image_2": ""
 },
 {
   "no": 119,
   "category": "dry_cake",
   "subcategory": "",
   "product_name": "Anniv-Choco Mocha Long",
   "image_1": "",
   "image_2": ""
 },
 {
   "no": 120,
   "category": "dry_cake",
   "subcategory": "",
   "product_name": "Anniv-Choco Mocha Roll",
   "image_1": "",
   "image_2": ""
 },
 {
   "no": 121,
   "category": "dry_cake",
   "subcategory": "",
   "product_name": "Anniv-Choco Roll",
   "image_1": "",
   "image_2": ""
 },
 {
   "no": 122,
   "category": "dry_cake",
   "subcategory": "",
   "product_name": "Anniv-Choco Tiger Long",
   "image_1": "",
   "image_2": ""
 },
 {
   "no": 123,
   "category": "dry_cake",
   "subcategory": "",
   "product_name": "Anniv-Choco Tiger Roll",
   "image_1": "",
   "image_2": ""
 },
 {
   "no": 124,
   "category": "dry_cake",
   "subcategory": "",
   "product_name": "Anniv-Emerald Long",
   "image_1": "",
   "image_2": ""
 },
 {
   "no": 125,
   "category": "dry_cake",
   "subcategory": "",
   "product_name": "Anniv-Emerald Slice",
   "image_1": "",
   "image_2": ""
 },
 {
   "no": 126,
   "category": "dry_cake",
   "subcategory": "",
   "product_name": "Anniv-Muffin Chocolate",
   "image_1": "",
   "image_2": ""
 },
 {
   "no": 127,
   "category": "dry_cake",
   "subcategory": "",
   "product_name": "Anniv-Oreo Long",
   "image_1": "",
   "image_2": ""
 },
 {
   "no": 128,
   "category": "dry_cake",
   "subcategory": "",
   "product_name": "Anniv-Pandan Long",
   "image_1": "",
   "image_2": ""
 },
 {
   "no": 129,
   "category": "dry_cake",
   "subcategory": "",
   "product_name": "Anniv-Pandan Roll",
   "image_1": "",
   "image_2": ""
 },
 {
   "no": 130,
   "category": "dry_cake",
   "subcategory": "",
   "product_name": "Banana Island Long",
   "image_1": "",
   "image_2": ""
 },
 {
   "no": 131,
   "category": "dry_cake",
   "subcategory": "",
   "product_name": "Banana Island Mica",
   "image_1": "",
   "image_2": ""
 },
 {
   "no": 132,
   "category": "dry_cake",
   "subcategory": "",
   "product_name": "Banana Island Slice",
   "image_1": "",
   "image_2": ""
 },
 {
   "no": 133,
   "category": "dry_cake",
   "subcategory": "",
   "product_name": "Banana Island Slice Pack",
   "image_1": "",
   "image_2": ""
 },
 {
   "no": 134,
   "category": "dry_cake",
   "subcategory": "",
   "product_name": "Blueberry Chscake Rl",
   "image_1": "",
   "image_2": ""
 },
 {
   "no": 135,
   "category": "dry_cake",
   "subcategory": "",
   "product_name": "Blueberry Chscake Slice",
   "image_1": "",
   "image_2": ""
 },
 {
   "no": 136,
   "category": "dry_cake",
   "subcategory": "",
   "product_name": "Bread Butter Pudding",
   "image_1": "",
   "image_2": ""
 },
 {
   "no": 137,
   "category": "dry_cake",
   "subcategory": "",
   "product_name": "Butter Cake Choco",
   "image_1": "",
   "image_2": ""
 },
 {
   "no": 138,
   "category": "dry_cake",
   "subcategory": "",
   "product_name": "Cheezee Long Mica",
   "image_1": "",
   "image_2": ""
 },
 {
   "no": 139,
   "category": "dry_cake",
   "subcategory": "",
   "product_name": "Cheezee Roll",
   "image_1": "",
   "image_2": ""
 },
 {
   "no": 140,
   "category": "dry_cake",
   "subcategory": "",
   "product_name": "Cheezee Roll Pack",
   "image_1": "",
   "image_2": ""
 },
 {
   "no": 141,
   "category": "dry_cake",
   "subcategory": "",
   "product_name": "Choco Long Mica",
   "image_1": "",
   "image_2": ""
 },
 {
   "no": 142,
   "category": "dry_cake",
   "subcategory": "",
   "product_name": "Choco Malt Roll",
   "image_1": "",
   "image_2": ""
 },
 {
   "no": 143,
   "category": "dry_cake",
   "subcategory": "",
   "product_name": "Choco Marble Long",
   "image_1": "",
   "image_2": ""
 },
 {
   "no": 144,
   "category": "dry_cake",
   "subcategory": "",
   "product_name": "Choco Marble Roll Pack",
   "image_1": "",
   "image_2": ""
 },
 {
   "no": 145,
   "category": "dry_cake",
   "subcategory": "",
   "product_name": "Choco Mocha Long Mica",
   "image_1": "",
   "image_2": ""
 },
 {
   "no": 146,
   "category": "dry_cake",
   "subcategory": "",
   "product_name": "Choco Mocha Roll",
   "image_1": "",
   "image_2": ""
 },
 {
   "no": 147,
   "category": "dry_cake",
   "subcategory": "",
   "product_name": "Choco Mocha Roll Pack",
   "image_1": "",
   "image_2": ""
 },
 {
   "no": 148,
   "category": "dry_cake",
   "subcategory": "",
   "product_name": "Choco Pie",
   "image_1": "",
   "image_2": ""
 },
 {
   "no": 149,
   "category": "dry_cake",
   "subcategory": "",
   "product_name": "Choco Roll",
   "image_1": "",
   "image_2": ""
 },
 {
   "no": 150,
   "category": "dry_cake",
   "subcategory": "",
   "product_name": "Choco Roll Pack",
   "image_1": "",
   "image_2": ""
 },
 {
   "no": 151,
   "category": "dry_cake",
   "subcategory": "",
   "product_name": "Choco Tiger Long Mica",
   "image_1": "",
   "image_2": ""
 },
 {
   "no": 152,
   "category": "dry_cake",
   "subcategory": "",
   "product_name": "Choco Tiger Roll",
   "image_1": "",
   "image_2": ""
 },
 {
   "no": 153,
   "category": "dry_cake",
   "subcategory": "",
   "product_name": "Choco Tiger Roll Pack",
   "image_1": "",
   "image_2": ""
 },
 {
   "no": 154,
   "category": "dry_cake",
   "subcategory": "",
   "product_name": "Cream Bruille",
   "image_1": "",
   "image_2": ""
 },
 {
   "no": 155,
   "category": "dry_cake",
   "subcategory": "",
   "product_name": "Double Yolk White Lotus",
   "image_1": "",
   "image_2": ""
 },
 {
   "no": 156,
   "category": "dry_cake",
   "subcategory": "",
   "product_name": "Du-Bread Butter Pud",
   "image_1": "",
   "image_2": ""
 },
 {
   "no": 157,
   "category": "dry_cake",
   "subcategory": "",
   "product_name": "Du-Cheese Long ",
   "image_1": "",
   "image_2": ""
 },
 {
   "no": 158,
   "category": "dry_cake",
   "subcategory": "",
   "product_name": "Du-Choco Long ",
   "image_1": "",
   "image_2": ""
 },
 {
   "no": 159,
   "category": "dry_cake",
   "subcategory": "",
   "product_name": "Du-Choco Mocha Long",
   "image_1": "",
   "image_2": ""
 },
 {
   "no": 160,
   "category": "dry_cake",
   "subcategory": "",
   "product_name": "Du-Choco Tiger Long",
   "image_1": "",
   "image_2": ""
 },
 {
   "no": 161,
   "category": "dry_cake",
   "subcategory": "",
   "product_name": "Du-Cream Bruille ",
   "image_1": "",
   "image_2": ""
 },
 {
   "no": 162,
   "category": "dry_cake",
   "subcategory": "",
   "product_name": "Du-Lapis Legit L",
   "image_1": "",
   "image_2": ""
 },
 {
   "no": 163,
   "category": "dry_cake",
   "subcategory": "",
   "product_name": "Du-Lapis Legit M",
   "image_1": "",
   "image_2": ""
 },
 {
   "no": 164,
   "category": "dry_cake",
   "subcategory": "",
   "product_name": "Du-Lapis Legit Prune L",
   "image_1": "",
   "image_2": ""
 },
 {
   "no": 165,
   "category": "dry_cake",
   "subcategory": "",
   "product_name": "Du-Lapis Surabaya L",
   "image_1": "",
   "image_2": ""
 },
 {
   "no": 166,
   "category": "dry_cake",
   "subcategory": "",
   "product_name": "Du-Pandan Long",
   "image_1": "",
   "image_2": ""
 },
 {
   "no": 167,
   "category": "dry_cake",
   "subcategory": "",
   "product_name": "Du-Pandan Tiger Long",
   "image_1": "",
   "image_2": ""
 },
 {
   "no": 168,
   "category": "dry_cake",
   "subcategory": "",
   "product_name": "Emerald Leaf",
   "image_1": "",
   "image_2": ""
 },
 {
   "no": 169,
   "category": "dry_cake",
   "subcategory": "",
   "product_name": "Emerald Long",
   "image_1": "",
   "image_2": ""
 },
 {
   "no": 170,
   "category": "dry_cake",
   "subcategory": "",
   "product_name": "Euro Chs Cake Slice",
   "image_1": "",
   "image_2": ""
 },
 {
   "no": 171,
   "category": "dry_cake",
   "subcategory": "",
   "product_name": "Green Tea Long",
   "image_1": "",
   "image_2": ""
 },
 {
   "no": 172,
   "category": "dry_cake",
   "subcategory": "",
   "product_name": "Green Tea Roll Pack",
   "image_1": "",
   "image_2": ""
 },
 {
   "no": 173,
   "category": "dry_cake",
   "subcategory": "",
   "product_name": "Honey Marble Slice",
   "image_1": "",
   "image_2": ""
 },
 {
   "no": 174,
   "category": "dry_cake",
   "subcategory": "",
   "product_name": "Lapis Legit Chs L",
   "image_1": "Lapis_Legit_Cheese.jpg",
   "image_2": ""
 },
 {
   "no": 175,
   "category": "dry_cake",
   "subcategory": "",
   "product_name": "Lapis Legit Chs M",
   "image_1": "Lapis_Legit_Cheese.jpg",
   "image_2": ""
 },
 {
   "no": 176,
   "category": "dry_cake",
   "subcategory": "",
   "product_name": "Lapis Legit Chs S",
   "image_1": "Lapis_Legit_Cheese.jpg",
   "image_2": ""
 },
 {
   "no": 177,
   "category": "dry_cake",
   "subcategory": "",
   "product_name": "Lapis Legit Chs Slice",
   "image_1": "Lapis_Legit_Cheese.jpg",
   "image_2": ""
 },
 {
   "no": 178,
   "category": "dry_cake",
   "subcategory": "",
   "product_name": "Lapis Legit L",
   "image_1": "",
   "image_2": ""
 },
 {
   "no": 179,
   "category": "dry_cake",
   "subcategory": "",
   "product_name": "Lapis Legit M",
   "image_1": "",
   "image_2": ""
 },
 {
   "no": 180,
   "category": "dry_cake",
   "subcategory": "",
   "product_name": "Lapis Legit Prune L",
   "image_1": "Lapis_Legit_Prune.jpg",
   "image_2": ""
 },
 {
   "no": 181,
   "category": "dry_cake",
   "subcategory": "",
   "product_name": "Lapis Legit Prune M",
   "image_1": "Lapis_Legit_Prune.jpg",
   "image_2": ""
 },
 {
   "no": 182,
   "category": "dry_cake",
   "subcategory": "",
   "product_name": "Lapis Legit Prune S",
   "image_1": "Lapis_Legit_Prune.jpg",
   "image_2": ""
 },
 {
   "no": 183,
   "category": "dry_cake",
   "subcategory": "",
   "product_name": "Lapis Legit Prune Slice",
   "image_1": "Lapis_Legit_Prune.jpg",
   "image_2": ""
 },
 {
   "no": 184,
   "category": "dry_cake",
   "subcategory": "",
   "product_name": "Lapis Legit S",
   "image_1": "",
   "image_2": ""
 },
 {
   "no": 185,
   "category": "dry_cake",
   "subcategory": "",
   "product_name": "Lapis Legit Slice",
   "image_1": "",
   "image_2": ""
 },
 {
   "no": 186,
   "category": "dry_cake",
   "subcategory": "",
   "product_name": "Lapis Surabaya L",
   "image_1": "Lapis_Surabaya.jpg",
   "image_2": ""
 },
 {
   "no": 187,
   "category": "dry_cake",
   "subcategory": "",
   "product_name": "Lapis Surabaya M",
   "image_1": "Lapis_Surabaya.jpg",
   "image_2": ""
 },
 {
   "no": 188,
   "category": "dry_cake",
   "subcategory": "",
   "product_name": "Lapis Surabaya S",
   "image_1": "Lapis_Surabaya.jpg",
   "image_2": ""
 },
 {
   "no": 189,
   "category": "dry_cake",
   "subcategory": "",
   "product_name": "Lapis Surabaya Slice",
   "image_1": "Lapis_Surabaya.jpg",
   "image_2": ""
 },
 {
   "no": 190,
   "category": "dry_cake",
   "subcategory": "",
   "product_name": "Marble Long",
   "image_1": "",
   "image_2": ""
 },
 {
   "no": 191,
   "category": "dry_cake",
   "subcategory": "",
   "product_name": "Mini Japanese",
   "image_1": "",
   "image_2": ""
 },
 {
   "no": 192,
   "category": "dry_cake",
   "subcategory": "",
   "product_name": "Moon Cake Durian",
   "image_1": "",
   "image_2": ""
 },
 {
   "no": 193,
   "category": "dry_cake",
   "subcategory": "",
   "product_name": "Moon Cake Green Tea",
   "image_1": "",
   "image_2": ""
 },
 {
   "no": 194,
   "category": "dry_cake",
   "subcategory": "",
   "product_name": "Muffin Banana",
   "image_1": "",
   "image_2": ""
 },
 {
   "no": 195,
   "category": "dry_cake",
   "subcategory": "",
   "product_name": "Muffin Cheese",
   "image_1": "Chocolate_Muffin___Cheese_Muffin.jpg",
   "image_2": ""
 },
 {
   "no": 196,
   "category": "dry_cake",
   "subcategory": "",
   "product_name": "Muffin Chocolate",
   "image_1": "Chocolate_Muffin.jpg",
   "image_2": ""
 },
 {
   "no": 197,
   "category": "dry_cake",
   "subcategory": "",
   "product_name": "Muffin Mini",
   "image_1": "",
   "image_2": ""
 },
 {
   "no": 198,
   "category": "dry_cake",
   "subcategory": "",
   "product_name": "New California Cake",
   "image_1": "",
   "image_2": ""
 },
 {
   "no": 199,
   "category": "dry_cake",
   "subcategory": "",
   "product_name": "Oreo Long Mica",
   "image_1": "",
   "image_2": ""
 },
 {
   "no": 200,
   "category": "dry_cake",
   "subcategory": "",
   "product_name": "Oreo Roll",
   "image_1": "",
   "image_2": ""
 },
 {
   "no": 201,
   "category": "dry_cake",
   "subcategory": "",
   "product_name": "Oreo Roll Pack",
   "image_1": "",
   "image_2": ""
 },
 {
   "no": 202,
   "category": "dry_cake",
   "subcategory": "",
   "product_name": "Pandan Leaf",
   "image_1": "",
   "image_2": ""
 },
 {
   "no": 203,
   "category": "dry_cake",
   "subcategory": "",
   "product_name": "Pandan Long Mica",
   "image_1": "",
   "image_2": ""
 },
 {
   "no": 204,
   "category": "dry_cake",
   "subcategory": "",
   "product_name": "Pandan Roll",
   "image_1": "",
   "image_2": ""
 },
 {
   "no": 205,
   "category": "dry_cake",
   "subcategory": "",
   "product_name": "Pandan Roll Pack",
   "image_1": "",
   "image_2": ""
 },
 {
   "no": 206,
   "category": "dry_cake",
   "subcategory": "",
   "product_name": "Pandan Tiger Long Mica",
   "image_1": "",
   "image_2": ""
 },
 {
   "no": 207,
   "category": "dry_cake",
   "subcategory": "",
   "product_name": "Pandan Tiger Roll",
   "image_1": "",
   "image_2": ""
 },
 {
   "no": 208,
   "category": "dry_cake",
   "subcategory": "",
   "product_name": "Pandan Tiger Roll Pack",
   "image_1": "",
   "image_2": ""
 },
 {
   "no": 209,
   "category": "dry_cake",
   "subcategory": "",
   "product_name": "Petit Four",
   "image_1": "",
   "image_2": ""
 },
 {
   "no": 210,
   "category": "dry_cake",
   "subcategory": "",
   "product_name": "Pound Banana Cake",
   "image_1": "Banana_Pound_Cake.jpg",
   "image_2": ""
 },
 {
   "no": 211,
   "category": "dry_cake",
   "subcategory": "",
   "product_name": "Rainbow Cake Ql",
   "image_1": "",
   "image_2": ""
 },
 {
   "no": 212,
   "category": "dry_cake",
   "subcategory": "",
   "product_name": "Rainbow Cake Qm",
   "image_1": "",
   "image_2": ""
 },
 {
   "no": 213,
   "category": "dry_cake",
   "subcategory": "",
   "product_name": "Rainbow Cake Slice",
   "image_1": "",
   "image_2": ""
 },
 {
   "no": 214,
   "category": "dry_cake",
   "subcategory": "",
   "product_name": "Single Yolk Lotus",
   "image_1": "",
   "image_2": ""
 },
 {
   "no": 215,
   "category": "dry_cake",
   "subcategory": "",
   "product_name": "Single Yolk White Lotus",
   "image_1": "",
   "image_2": ""
 },
 {
   "no": 216,
   "category": "dry_cake",
   "subcategory": "",
   "product_name": "Soft Pandan Cake",
   "image_1": "Soft_Pandan_Toast___Soft_Choco_Toast.jpg",
   "image_2": ""
 },
 {
   "no": 217,
   "category": "dry_cake",
   "subcategory": "",
   "product_name": "White Lotus",
   "image_1": "",
   "image_2": ""
 },
 {
   "no": 218,
   "category": "dry_cake",
   "subcategory": "",
   "product_name": "Soft Choco Toast",
   "image_1": "Soft__Choco_Toast.jpg",
   "image_2": ""
 },
 {
   "no": 219,
   "category": "slice_cake",
   "subcategory": "",
   "product_name": "Black Velvet R Slice V2",
   "image_1": "",
   "image_2": ""
 },
 {
   "no": 220,
   "category": "slice_cake",
   "subcategory": "",
   "product_name": "Blackforest R (B) Slice",
   "image_1": "BLACK_FOREST-Slice.jpg",
   "image_2": ""
 },
 {
   "no": 221,
   "category": "slice_cake",
   "subcategory": "",
   "product_name": "Blackforest R (C) Slice",
   "image_1": "BLACK_FOREST-Slice.jpg",
   "image_2": ""
 },
 {
   "no": 222,
   "category": "slice_cake",
   "subcategory": "",
   "product_name": "Blackforest Slice V3",
   "image_1": "",
   "image_2": ""
 },
 {
   "no": 223,
   "category": "slice_cake",
   "subcategory": "",
   "product_name": "Chantilly Blossom Slice",
   "image_1": "",
   "image_2": ""
 },
 {
   "no": 224,
   "category": "slice_cake",
   "subcategory": "",
   "product_name": "Chantily Slice V3",
   "image_1": "SLICE_CAKE-CHANTILY.jpg",
   "image_2": ""
 },
 {
   "no": 225,
   "category": "slice_cake",
   "subcategory": "",
   "product_name": "Chocfudge R Slice",
   "image_1": "",
   "image_2": ""
 },
 {
   "no": 226,
   "category": "slice_cake",
   "subcategory": "",
   "product_name": "Choco Pearl (B)",
   "image_1": "",
   "image_2": ""
 },
 {
   "no": 227,
   "category": "slice_cake",
   "subcategory": "",
   "product_name": "Choco Pearl (C)",
   "image_1": "",
   "image_2": ""
 },
 {
   "no": 228,
   "category": "slice_cake",
   "subcategory": "",
   "product_name": "Choco Pudding",
   "image_1": "",
   "image_2": ""
 },
 {
   "no": 229,
   "category": "slice_cake",
   "subcategory": "",
   "product_name": "Choco Rain Slice V3",
   "image_1": "SLICE_CAKE-CHOCO_RAIN.jpg",
   "image_2": ""
 },
 {
   "no": 230,
   "category": "slice_cake",
   "subcategory": "",
   "product_name": "Choconut Forest Slice V3",
   "image_1": "",
   "image_2": ""
 },
 {
   "no": 231,
   "category": "slice_cake",
   "subcategory": "",
   "product_name": "Milo Pudding",
   "image_1": "",
   "image_2": ""
 },
 {
   "no": 232,
   "category": "slice_cake",
   "subcategory": "",
   "product_name": "Opera Slice V3",
   "image_1": "",
   "image_2": ""
 },
 {
   "no": 233,
   "category": "slice_cake",
   "subcategory": "",
   "product_name": "Oreo Cup",
   "image_1": "Oreo_Cup.jpeg",
   "image_2": ""
 },
 {
   "no": 234,
   "category": "slice_cake",
   "subcategory": "",
   "product_name": "Rainbow Cream Chs Slice V2",
   "image_1": "",
   "image_2": ""
 },
 {
   "no": 235,
   "category": "slice_cake",
   "subcategory": "",
   "product_name": "Red Velvet R Slice V2",
   "image_1": "Red_Velvet_1000x1000.jpg",
   "image_2": ""
 },
 {
   "no": 236,
   "category": "slice_cake",
   "subcategory": "",
   "product_name": "Tiramisu Original",
   "image_1": "tiramisu_originale_cup.jpg",
   "image_2": ""
 },
 {
   "no": 237,
   "category": "slice_cake",
   "subcategory": "",
   "product_name": "Tiramisu Slice V3",
   "image_1": "Tiramisu_Slice_Cake.jpg",
   "image_2": ""
 },
 {
   "no": 238,
   "category": "slice_cake",
   "subcategory": "",
   "product_name": "Vanilla Caramel Pudding",
   "image_1": "",
   "image_2": ""
 },
 {
   "no": 239,
   "category": "whole_cake",
   "subcategory": "",
   "product_name": "Black Velvet Rl V2",
   "image_1": "",
   "image_2": ""
 },
 {
   "no": 240,
   "category": "whole_cake",
   "subcategory": "",
   "product_name": "Black Velvet Rm V2",
   "image_1": "",
   "image_2": ""
 },
 {
   "no": 241,
   "category": "whole_cake",
   "subcategory": "",
   "product_name": "Blackforest Ql (B)",
   "image_1": "Blackforest_L.jpg",
   "image_2": ""
 },
 {
   "no": 242,
   "category": "whole_cake",
   "subcategory": "",
   "product_name": "Blackforest Ql (C)",
   "image_1": "Blackforest_L.jpg",
   "image_2": ""
 },
 {
   "no": 243,
   "category": "whole_cake",
   "subcategory": "",
   "product_name": "Blackforest Ql Sg",
   "image_1": "Blackforest_L.jpg",
   "image_2": ""
 },
 {
   "no": 244,
   "category": "whole_cake",
   "subcategory": "",
   "product_name": "Blackforest Qm (B)",
   "image_1": "",
   "image_2": ""
 },
 {
   "no": 245,
   "category": "whole_cake",
   "subcategory": "",
   "product_name": "Blackforest Qm (C)",
   "image_1": "",
   "image_2": ""
 },
 {
   "no": 246,
   "category": "whole_cake",
   "subcategory": "",
   "product_name": "Blackforest Qm Sg",
   "image_1": "",
   "image_2": ""
 },
 {
   "no": 247,
   "category": "whole_cake",
   "subcategory": "",
   "product_name": "Blackforest Qs (B)",
   "image_1": "Blackforest_.jpg",
   "image_2": ""
 },
 {
   "no": 248,
   "category": "whole_cake",
   "subcategory": "",
   "product_name": "Blackforest Qs (C)",
   "image_1": "Blackforest_.jpg",
   "image_2": ""
 },
 {
   "no": 249,
   "category": "whole_cake",
   "subcategory": "",
   "product_name": "Blackforest Qs Sg",
   "image_1": "Blackforest_.jpg",
   "image_2": ""
 },
 {
   "no": 250,
   "category": "whole_cake",
   "subcategory": "",
   "product_name": "Blackforest Qxl (B)",
   "image_1": "Blackforest_XL.jpg",
   "image_2": ""
 },
 {
   "no": 251,
   "category": "whole_cake",
   "subcategory": "",
   "product_name": "Blackforest Qxl (C)",
   "image_1": "Blackforest_XL.jpg",
   "image_2": ""
 },
 {
   "no": 252,
   "category": "whole_cake",
   "subcategory": "",
   "product_name": "Blackforest Qxxl (B)",
   "image_1": "",
   "image_2": ""
 },
 {
   "no": 253,
   "category": "whole_cake",
   "subcategory": "",
   "product_name": "Blackforest Qxxl (C)",
   "image_1": "",
   "image_2": ""
 },
 {
   "no": 254,
   "category": "whole_cake",
   "subcategory": "",
   "product_name": "Blackforest Rl (B)",
   "image_1": "",
   "image_2": ""
 },
 {
   "no": 255,
   "category": "whole_cake",
   "subcategory": "",
   "product_name": "Blackforest Rl (C)",
   "image_1": "",
   "image_2": ""
 },
 {
   "no": 256,
   "category": "whole_cake",
   "subcategory": "",
   "product_name": "Blackforest Rm V3",
   "image_1": "",
   "image_2": ""
 },
 {
   "no": 257,
   "category": "whole_cake",
   "subcategory": "",
   "product_name": "Chantilly Blossom Ql",
   "image_1": "",
   "image_2": ""
 },
 {
   "no": 258,
   "category": "whole_cake",
   "subcategory": "",
   "product_name": "Chantilly Blossom Qm",
   "image_1": "",
   "image_2": ""
 },
 {
   "no": 259,
   "category": "whole_cake",
   "subcategory": "",
   "product_name": "Chantily Ql (B) V2",
   "image_1": "Chantily_L.jpg",
   "image_2": ""
 },
 {
   "no": 260,
   "category": "whole_cake",
   "subcategory": "",
   "product_name": "Chantily Ql (C) V2",
   "image_1": "Chantily_L.jpg",
   "image_2": ""
 },
 {
   "no": 261,
   "category": "whole_cake",
   "subcategory": "",
   "product_name": "Chantily Qm (B) V2",
   "image_1": "Chantily_Mini.jpg",
   "image_2": ""
 },
 {
   "no": 262,
   "category": "whole_cake",
   "subcategory": "",
   "product_name": "Chantily Qm (C) V2",
   "image_1": "Chantily_Mini.jpg",
   "image_2": ""
 },
 {
   "no": 263,
   "category": "whole_cake",
   "subcategory": "",
   "product_name": "Chantily Qs (B) V2",
   "image_1": "",
   "image_2": ""
 },
 {
   "no": 264,
   "category": "whole_cake",
   "subcategory": "",
   "product_name": "Chantily Qs (C) V2",
   "image_1": "",
   "image_2": ""
 },
 {
   "no": 265,
   "category": "whole_cake",
   "subcategory": "",
   "product_name": "Chantily Qxl (B)",
   "image_1": "Chantily_XL.jpg",
   "image_2": ""
 },
 {
   "no": 266,
   "category": "whole_cake",
   "subcategory": "",
   "product_name": "Chantily Qxl (B) V2",
   "image_1": "Chantily_XL.jpg",
   "image_2": ""
 },
 {
   "no": 267,
   "category": "whole_cake",
   "subcategory": "",
   "product_name": "Chantily Qxl (C)",
   "image_1": "Chantily_XL.jpg",
   "image_2": ""
 },
 {
   "no": 268,
   "category": "whole_cake",
   "subcategory": "",
   "product_name": "Chantily Qxl (C) V2",
   "image_1": "Chantily_XL.jpg",
   "image_2": ""
 },
 {
   "no": 269,
   "category": "whole_cake",
   "subcategory": "",
   "product_name": "Chantily Qxxl (B)",
   "image_1": "",
   "image_2": ""
 },
 {
   "no": 270,
   "category": "whole_cake",
   "subcategory": "",
   "product_name": "Chantily Qxxl (B) V2",
   "image_1": "",
   "image_2": ""
 },
 {
   "no": 271,
   "category": "whole_cake",
   "subcategory": "",
   "product_name": "Chantily Qxxl (C)",
   "image_1": "",
   "image_2": ""
 },
 {
   "no": 272,
   "category": "whole_cake",
   "subcategory": "",
   "product_name": "Chantily Qxxl (C) V2",
   "image_1": "",
   "image_2": ""
 },
 {
   "no": 273,
   "category": "whole_cake",
   "subcategory": "",
   "product_name": "Chantily Rm (B)",
   "image_1": "",
   "image_2": ""
 },
 {
   "no": 274,
   "category": "whole_cake",
   "subcategory": "",
   "product_name": "Chantily Rm (C)",
   "image_1": "",
   "image_2": ""
 },
 {
   "no": 275,
   "category": "whole_cake",
   "subcategory": "",
   "product_name": "Choco Bear",
   "image_1": "",
   "image_2": ""
 },
 {
   "no": 276,
   "category": "whole_cake",
   "subcategory": "",
   "product_name": "Choco Fudge Lvm (B)",
   "image_1": "",
   "image_2": ""
 },
 {
   "no": 277,
   "category": "whole_cake",
   "subcategory": "",
   "product_name": "Choco Fudge Lvm (C)",
   "image_1": "",
   "image_2": ""
 },
 {
   "no": 278,
   "category": "whole_cake",
   "subcategory": "",
   "product_name": "Choco Fudge Rl",
   "image_1": "",
   "image_2": ""
 },
 {
   "no": 279,
   "category": "whole_cake",
   "subcategory": "",
   "product_name": "Choco Mecca Cake",
   "image_1": "",
   "image_2": ""
 },
 {
   "no": 280,
   "category": "whole_cake",
   "subcategory": "",
   "product_name": "Choco Rain Ql V2",
   "image_1": "Choco_Rain.jpg",
   "image_2": ""
 },
 {
   "no": 281,
   "category": "whole_cake",
   "subcategory": "",
   "product_name": "Choco Rain Qm V2",
   "image_1": "Choco_Rain_Mini.jpg",
   "image_2": ""
 },
 {
   "no": 282,
   "category": "whole_cake",
   "subcategory": "",
   "product_name": "Choco Rain Qs V2",
   "image_1": "Choco_Rain.jpg",
   "image_2": ""
 },
 {
   "no": 283,
   "category": "whole_cake",
   "subcategory": "",
   "product_name": "Choco Rain Qxl (B)",
   "image_1": "Choco_Rain.jpg",
   "image_2": ""
 },
 {
   "no": 284,
   "category": "whole_cake",
   "subcategory": "",
   "product_name": "Choco Rain Qxl (C)",
   "image_1": "Choco_Rain.jpg",
   "image_2": ""
 },
 {
   "no": 285,
   "category": "whole_cake",
   "subcategory": "",
   "product_name": "Choco Rain Qxl V2",
   "image_1": "Choco_Rain.jpg",
   "image_2": ""
 },
 {
   "no": 286,
   "category": "whole_cake",
   "subcategory": "",
   "product_name": "Choco Rain Qxxl (B)",
   "image_1": "Choco_Rain.jpg",
   "image_2": ""
 },
 {
   "no": 287,
   "category": "whole_cake",
   "subcategory": "",
   "product_name": "Choco Rain Qxxl (C)",
   "image_1": "Choco_Rain.jpg",
   "image_2": ""
 },
 {
   "no": 288,
   "category": "whole_cake",
   "subcategory": "",
   "product_name": "Choco Rain Rm (B)",
   "image_1": "Choco_Rain.jpg",
   "image_2": ""
 },
 {
   "no": 289,
   "category": "whole_cake",
   "subcategory": "",
   "product_name": "Choco Rain Rm (C)",
   "image_1": "Choco_Rain.jpg",
   "image_2": ""
 },
 {
   "no": 290,
   "category": "whole_cake",
   "subcategory": "",
   "product_name": "Choconut Forest Ql V2",
   "image_1": "",
   "image_2": ""
 },
 {
   "no": 291,
   "category": "whole_cake",
   "subcategory": "",
   "product_name": "Choconut Forest Qm V2",
   "image_1": "",
   "image_2": ""
 },
 {
   "no": 292,
   "category": "whole_cake",
   "subcategory": "",
   "product_name": "Choconut Forest Qs V2",
   "image_1": "",
   "image_2": ""
 },
 {
   "no": 293,
   "category": "whole_cake",
   "subcategory": "",
   "product_name": "Dark Nougat Rl",
   "image_1": "",
   "image_2": ""
 },
 {
   "no": 294,
   "category": "whole_cake",
   "subcategory": "",
   "product_name": "Dark Nougat Rm",
   "image_1": "",
   "image_2": ""
 },
 {
   "no": 295,
   "category": "whole_cake",
   "subcategory": "",
   "product_name": "Double Choco Rm (B) V2",
   "image_1": "",
   "image_2": ""
 },
 {
   "no": 296,
   "category": "whole_cake",
   "subcategory": "",
   "product_name": "Madeena Cake",
   "image_1": "",
   "image_2": ""
 },
 {
   "no": 297,
   "category": "whole_cake",
   "subcategory": "",
   "product_name": "Natal Black Forest Rm",
   "image_1": "",
   "image_2": ""
 },
 {
   "no": 298,
   "category": "whole_cake",
   "subcategory": "",
   "product_name": "Natal Chantilly Rm",
   "image_1": "",
   "image_2": ""
 },
 {
   "no": 299,
   "category": "whole_cake",
   "subcategory": "",
   "product_name": "Natal Red Velvet Rm",
   "image_1": "",
   "image_2": ""
 },
 {
   "no": 300,
   "category": "whole_cake",
   "subcategory": "",
   "product_name": "Opera Ql V2",
   "image_1": "",
   "image_2": ""
 },
 {
   "no": 301,
   "category": "whole_cake",
   "subcategory": "",
   "product_name": "Opera Qm V2",
   "image_1": "",
   "image_2": ""
 },
 {
   "no": 302,
   "category": "whole_cake",
   "subcategory": "",
   "product_name": "Opera Qs V2",
   "image_1": "",
   "image_2": ""
 },
 {
   "no": 303,
   "category": "whole_cake",
   "subcategory": "",
   "product_name": "Oreo Cream Cheese Rm",
   "image_1": "",
   "image_2": ""
 },
 {
   "no": 304,
   "category": "whole_cake",
   "subcategory": "",
   "product_name": "Rainbow Cream Chs Rl V2",
   "image_1": "",
   "image_2": ""
 },
 {
   "no": 305,
   "category": "whole_cake",
   "subcategory": "",
   "product_name": "Rainbow Cream Chs Rm V2",
   "image_1": "",
   "image_2": ""
 },
 {
   "no": 306,
   "category": "whole_cake",
   "subcategory": "",
   "product_name": "Raspberry Velvet Lvm",
   "image_1": "",
   "image_2": ""
 },
 {
   "no": 307,
   "category": "whole_cake",
   "subcategory": "",
   "product_name": "Raspberry Velvet Rm",
   "image_1": "",
   "image_2": ""
 },
 {
   "no": 308,
   "category": "whole_cake",
   "subcategory": "",
   "product_name": "Red Velvet Lv M",
   "image_1": "RED_VELVET.jpg",
   "image_2": ""
 },
 {
   "no": 309,
   "category": "whole_cake",
   "subcategory": "",
   "product_name": "Red Velvet Rl (C) V2",
   "image_1": "Red_Velvet_RL.jpg",
   "image_2": ""
 },
 {
   "no": 310,
   "category": "whole_cake",
   "subcategory": "",
   "product_name": "Red Velvet Rm V2",
   "image_1": "RED_VELVET.jpg",
   "image_2": ""
 },
 {
   "no": 311,
   "category": "whole_cake",
   "subcategory": "",
   "product_name": "Tilly Bear",
   "image_1": "",
   "image_2": ""
 },
 {
   "no": 312,
   "category": "whole_cake",
   "subcategory": "",
   "product_name": "Tiramisu Ql V2",
   "image_1": "",
   "image_2": ""
 },
 {
   "no": 313,
   "category": "whole_cake",
   "subcategory": "",
   "product_name": "Tiramisu Qm V2",
   "image_1": "",
   "image_2": ""
 },
 {
   "no": 314,
   "category": "whole_cake",
   "subcategory": "",
   "product_name": "Tiramisu Qs V2",
   "image_1": "",
   "image_2": ""
 },
 {
   "no": 315,
   "category": "whole_cake",
   "subcategory": "",
   "product_name": "Tiramisu Qxl (B)",
   "image_1": "",
   "image_2": ""
 },
 {
   "no": 316,
   "category": "whole_cake",
   "subcategory": "",
   "product_name": "Tiramisu Qxl (C)",
   "image_1": "",
   "image_2": ""
 },
 {
   "no": 317,
   "category": "whole_cake",
   "subcategory": "",
   "product_name": "Tiramisu Qxl V2",
   "image_1": "",
   "image_2": ""
 },
 {
   "no": 318,
   "category": "whole_cake",
   "subcategory": "",
   "product_name": "Tiramisu Qxxl (B)",
   "image_1": "",
   "image_2": ""
 },
 {
   "no": 319,
   "category": "whole_cake",
   "subcategory": "",
   "product_name": "Tiramisu Qxxl (C)",
   "image_1": "",
   "image_2": ""
 },
 {
   "no": 320,
   "category": "whole_cake",
   "subcategory": "",
   "product_name": "Tiramisu Rl Sg",
   "image_1": "",
   "image_2": ""
 },
 {
   "no": 321,
   "category": "whole_cake",
   "subcategory": "",
   "product_name": "Tiramisu Rm Sg",
   "image_1": "",
   "image_2": ""
 },
 {
   "no": 322,
   "category": "cookies",
   "subcategory": "",
   "product_name": "Cheese Balls",
   "image_1": "Cheese_Ball.jpg",
   "image_2": ""
 },
 {
   "no": 323,
   "category": "cookies",
   "subcategory": "",
   "product_name": "Triple Magic",
   "image_1": "",
   "image_2": ""
 },
 {
   "no": 324,
   "category": "cookies",
   "subcategory": "",
   "product_name": "Kastangel Cheese",
   "image_1": "Kastengels.jpg",
   "image_2": ""
 },
 {
   "no": 325,
   "category": "cookies",
   "subcategory": "",
   "product_name": "Cats Tounge",
   "image_1": "Cats_Tongue.jpg",
   "image_2": ""
 },
 {
   "no": 326,
   "category": "cookies",
   "subcategory": "",
   "product_name": "Almond Diva",
   "image_1": "",
   "image_2": ""
 },
 {
   "no": 327,
   "category": "cookies",
   "subcategory": "",
   "product_name": "Golden Nastar",
   "image_1": "",
   "image_2": ""
 },
 {
   "no": 328,
   "category": "cookies",
   "subcategory": "",
   "product_name": "St Choco",
   "image_1": "st_choco.jpg",
   "image_2": ""
 },
 {
   "no": 329,
   "category": "cookies",
   "subcategory": "",
   "product_name": "Caramel Almond",
   "image_1": "caramel_almond.jpg",
   "image_2": ""
 },
 {
   "no": 330,
   "category": "cookies",
   "subcategory": "",
   "product_name": "Choconuts",
   "image_1": "",
   "image_2": ""
 },
 {
   "no": 331,
   "category": "cookies",
   "subcategory": "",
   "product_name": "Choco Strip Small",
   "image_1": "",
   "image_2": ""
 },
 {
   "no": 332,
   "category": "cookies",
   "subcategory": "",
   "product_name": "Cheese Strip Small",
   "image_1": "",
   "image_2": ""
 },
 {
   "no": 333,
   "category": "cookies",
   "subcategory": "",
   "product_name": "Green Tea Small",
   "image_1": "",
   "image_2": ""
 },
 {
   "no": 334,
   "category": "cookies",
   "subcategory": "",
   "product_name": "Choco Strip",
   "image_1": "",
   "image_2": ""
 },
 {
   "no": 335,
   "category": "cookies",
   "subcategory": "",
   "product_name": "Cheese Strip",
   "image_1": "",
   "image_2": ""
 },
 {
   "no": 336,
   "category": "cookies",
   "subcategory": "",
   "product_name": "Original Mede",
   "image_1": "BT-KACANG_MEDE.jpg",
   "image_2": ""
 },
 {
   "no": 337,
   "category": "cookies",
   "subcategory": "",
   "product_name": "Crunchy Mede",
   "image_1": "BT-KACANG_MEDE.jpg",
   "image_2": ""
 },
 {
   "no": 338,
   "category": "cookies",
   "subcategory": "",
   "product_name": "Hot Spicy Mede",
   "image_1": "BT-KACANG_MEDE.jpg",
   "image_2": ""
 },
 {
   "no": 339,
   "category": "cookies",
   "subcategory": "",
   "product_name": "Golden Nastar Jar Small",
   "image_1": "",
   "image_2": ""
 },
 {
   "no": 340,
   "category": "cookies",
   "subcategory": "",
   "product_name": "St Choco Jar Small",
   "image_1": "st_choco.jpg",
   "image_2": ""
 },
 {
   "no": 341,
   "category": "cookies",
   "subcategory": "",
   "product_name": "Golden Nastar Jar Big",
   "image_1": "Golden_Nastar.jpg",
   "image_2": ""
 },
 {
   "no": 342,
   "category": "cookies",
   "subcategory": "",
   "product_name": "St Choco Jar Big",
   "image_1": "st_choco.jpg",
   "image_2": ""
 },
 {
   "no": 343,
   "category": "cookies",
   "subcategory": "",
   "product_name": "Prune Cookies",
   "image_1": "",
   "image_2": ""
 },
 {
   "no": 344,
   "category": "cookies",
   "subcategory": "",
   "product_name": "Granola Caramel",
   "image_1": "",
   "image_2": ""
 },
 {
   "no": 345,
   "category": "cookies",
   "subcategory": "",
   "product_name": "Choco Peanut Chunk",
   "image_1": "",
   "image_2": ""
 },
 {
   "no": 346,
   "category": "cookies",
   "subcategory": "",
   "product_name": "Golden Nastar Segi 8 Big",
   "image_1": "Golden_Nastar.jpg",
   "image_2": ""
 },
 {
   "no": 347,
   "category": "cookies",
   "subcategory": "",
   "product_name": "Golden Nastar Bulat",
   "image_1": "Golden_Nastar.jpg",
   "image_2": ""
 },
 {
   "no": 348,
   "category": "hampers",
   "subcategory": "",
   "product_name": "Emerald",
   "image_1": "Emerald.jpg",
   "image_2": ""
 },
 {
   "no": 349,
   "category": "hampers",
   "subcategory": "",
   "product_name": "Sapphire - Can",
   "image_1": "",
   "image_2": ""
 },
 {
   "no": 350,
   "category": "hampers",
   "subcategory": "",
   "product_name": "Garnet",
   "image_1": "",
   "image_2": ""
 },
 {
   "no": 351,
   "category": "hampers",
   "subcategory": "",
   "product_name": "Crystal",
   "image_1": "Crystal.jpg",
   "image_2": ""
 },
 {
   "no": 352,
   "category": "hampers",
   "subcategory": "",
   "product_name": "Spc Amber",
   "image_1": "Amber.jpg",
   "image_2": ""
 },
 {
   "no": 353,
   "category": "hampers",
   "subcategory": "",
   "product_name": "Montana",
   "image_1": "Montana.jpg",
   "image_2": ""
 },
 {
   "no": 354,
   "category": "hampers",
   "subcategory": "",
   "product_name": "Amethyst",
   "image_1": "Amethyst.jpg",
   "image_2": ""
 },
 {
   "no": 355,
   "category": "hampers",
   "subcategory": "",
   "product_name": "Premium Crystal",
   "image_1": "",
   "image_2": ""
 }
]