<svg width="72" height="350" viewBox="0 0 72 350" fill="none" xmlns="http://www.w3.org/2000/svg">
<path d="M0 349.137C5.23464 315.912 22.422 284.538 38.6574 254.902C55.7097 223.774 71.7119 194.564 71.7119 167.138C71.7119 139.567 55.5409 113.29 38.3882 85.4169C22.2324 59.1641 5.20569 31.4959 0 0V349.137Z" fill="#F68B1E"/>
</svg>
