<svg width="72" height="350" viewBox="0 0 72 350" fill="none" xmlns="http://www.w3.org/2000/svg">
<path d="M72 349.137C66.7655 315.912 49.5786 284.538 33.3437 254.902C16.2918 223.774 0.290001 194.564 0.290001 167.138C0.290001 139.567 16.4606 113.29 33.6128 85.4169C49.7682 59.1641 66.7944 31.4959 72 0V349.137Z" fill="black" fill-opacity="0.15"/>
</svg>
