<svg width="62" height="26" viewBox="0 0 62 26" fill="none" xmlns="http://www.w3.org/2000/svg">
<rect width="62" height="25" rx="5" transform="matrix(-1 0 0 1 62 0.676392)" fill="#EF3A50"/>
<path d="M11.348 8.87639C12.1973 8.87639 12.9347 9.01639 13.56 9.29639C14.1947 9.57639 14.68 9.97772 15.016 10.5004C15.352 11.0231 15.52 11.6437 15.52 12.3624C15.52 13.0717 15.352 13.6924 15.016 14.2244C14.68 14.7471 14.1947 15.1484 13.56 15.4284C12.9347 15.7084 12.1973 15.8484 11.348 15.8484H9.136V18.6764H7.316V8.87639H11.348ZM11.264 14.3084C12.0573 14.3084 12.6593 14.1404 13.07 13.8044C13.4807 13.4684 13.686 12.9877 13.686 12.3624C13.686 11.7371 13.4807 11.2564 13.07 10.9204C12.6593 10.5844 12.0573 10.4164 11.264 10.4164H9.136V14.3084H11.264ZM18.8991 12.2924C19.4031 11.5084 20.2898 11.1164 21.5591 11.1164V12.7824C21.4098 12.7544 21.2745 12.7404 21.1531 12.7404C20.4718 12.7404 19.9398 12.9411 19.5571 13.3424C19.1745 13.7344 18.9831 14.3037 18.9831 15.0504V18.6764H17.2331V11.2004H18.8991V12.2924ZM26.4673 18.7744C25.7113 18.7744 25.03 18.6111 24.4233 18.2844C23.8166 17.9577 23.3406 17.5051 22.9953 16.9264C22.6593 16.3384 22.4913 15.6757 22.4913 14.9384C22.4913 14.2011 22.6593 13.5431 22.9953 12.9644C23.3406 12.3857 23.8166 11.9331 24.4233 11.6064C25.03 11.2797 25.7113 11.1164 26.4673 11.1164C27.2326 11.1164 27.9186 11.2797 28.5253 11.6064C29.132 11.9331 29.6033 12.3857 29.9393 12.9644C30.2846 13.5431 30.4573 14.2011 30.4573 14.9384C30.4573 15.6757 30.2846 16.3384 29.9393 16.9264C29.6033 17.5051 29.132 17.9577 28.5253 18.2844C27.9186 18.6111 27.2326 18.7744 26.4673 18.7744ZM26.4673 17.2764C27.1113 17.2764 27.6433 17.0617 28.0633 16.6324C28.4833 16.2031 28.6933 15.6384 28.6933 14.9384C28.6933 14.2384 28.4833 13.6737 28.0633 13.2444C27.6433 12.8151 27.1113 12.6004 26.4673 12.6004C25.8233 12.6004 25.2913 12.8151 24.8713 13.2444C24.4606 13.6737 24.2553 14.2384 24.2553 14.9384C24.2553 15.6384 24.4606 16.2031 24.8713 16.6324C25.2913 17.0617 25.8233 17.2764 26.4673 17.2764ZM41.6988 11.1164C42.6414 11.1164 43.3881 11.3917 43.9388 11.9424C44.4894 12.4837 44.7648 13.3004 44.7648 14.3924V18.6764H43.0148V14.6164C43.0148 13.9631 42.8701 13.4731 42.5808 13.1464C42.2914 12.8104 41.8761 12.6424 41.3348 12.6424C40.7468 12.6424 40.2754 12.8384 39.9208 13.2304C39.5661 13.6131 39.3888 14.1637 39.3888 14.8824V18.6764H37.6388V14.6164C37.6388 13.9631 37.4941 13.4731 37.2048 13.1464C36.9154 12.8104 36.5001 12.6424 35.9588 12.6424C35.3614 12.6424 34.8854 12.8337 34.5308 13.2164C34.1854 13.5991 34.0128 14.1544 34.0128 14.8824V18.6764H32.2627V11.2004H33.9287V12.1524C34.2087 11.8164 34.5588 11.5597 34.9788 11.3824C35.3988 11.2051 35.8654 11.1164 36.3788 11.1164C36.9388 11.1164 37.4334 11.2237 37.8628 11.4384C38.3014 11.6437 38.6468 11.9517 38.8988 12.3624C39.2068 11.9704 39.6034 11.6671 40.0888 11.4524C40.5741 11.2284 41.1108 11.1164 41.6988 11.1164ZM50.5614 18.7744C49.8054 18.7744 49.1241 18.6111 48.5174 18.2844C47.9107 17.9577 47.4347 17.5051 47.0894 16.9264C46.7534 16.3384 46.5854 15.6757 46.5854 14.9384C46.5854 14.2011 46.7534 13.5431 47.0894 12.9644C47.4347 12.3857 47.9107 11.9331 48.5174 11.6064C49.1241 11.2797 49.8054 11.1164 50.5614 11.1164C51.3267 11.1164 52.0127 11.2797 52.6194 11.6064C53.2261 11.9331 53.6974 12.3857 54.0334 12.9644C54.3787 13.5431 54.5514 14.2011 54.5514 14.9384C54.5514 15.6757 54.3787 16.3384 54.0334 16.9264C53.6974 17.5051 53.2261 17.9577 52.6194 18.2844C52.0127 18.6111 51.3267 18.7744 50.5614 18.7744ZM50.5614 17.2764C51.2054 17.2764 51.7374 17.0617 52.1574 16.6324C52.5774 16.2031 52.7874 15.6384 52.7874 14.9384C52.7874 14.2384 52.5774 13.6737 52.1574 13.2444C51.7374 12.8151 51.2054 12.6004 50.5614 12.6004C49.9174 12.6004 49.3854 12.8151 48.9654 13.2444C48.5547 13.6737 48.3494 14.2384 48.3494 14.9384C48.3494 15.6384 48.5547 16.2031 48.9654 16.6324C49.3854 17.0617 49.9174 17.2764 50.5614 17.2764Z" fill="white"/>
</svg>
