<svg width="18" height="18" viewBox="0 0 18 18" fill="none" xmlns="http://www.w3.org/2000/svg">
<g clip-path="url(#clip0)">
<path d="M14.0902 17.4155H3.90992C3.47331 17.4155 3.09728 17.1077 3.01104 16.6797L1.25903 7.98417H16.7411L14.989 16.6796C14.9028 17.1076 14.5268 17.4155 14.0902 17.4155Z" fill="url(#paint0_linear)"/>
<path d="M12.8455 16.4187C12.8171 16.4187 12.7884 16.4167 12.7595 16.4123C12.4454 16.3652 12.229 16.0723 12.2761 15.7582L13.0758 10.4292C13.123 10.115 13.4159 9.89859 13.7299 9.9458C14.044 9.99295 14.2604 10.2858 14.2133 10.5999L13.4135 15.9289C13.3708 16.2141 13.1254 16.4187 12.8455 16.4187Z" fill="url(#paint1_linear)"/>
<path d="M5.15444 16.4187C4.87453 16.4187 4.62924 16.2141 4.58646 15.9289L3.78672 10.5999C3.73958 10.2858 3.956 9.99298 4.27009 9.9458C4.5841 9.89869 4.87702 10.1151 4.92417 10.4292L5.7239 15.7582C5.77105 16.0723 5.55462 16.3651 5.24054 16.4123C5.21157 16.4167 5.18281 16.4187 5.15444 16.4187Z" fill="url(#paint2_linear)"/>
<path d="M10.3121 16.4187C10.3021 16.4187 10.2922 16.4184 10.2822 16.4179C9.96502 16.4017 9.72104 16.1314 9.73721 15.8142L10.0098 10.4852C10.026 10.168 10.2968 9.92458 10.6135 9.94019C10.9307 9.95644 11.1746 10.2267 11.1584 10.5439L10.8859 15.873C10.8702 16.1801 10.6162 16.4187 10.3121 16.4187Z" fill="url(#paint3_linear)"/>
<path d="M7.68801 16.4187C7.38387 16.4187 7.12987 16.1802 7.11415 15.873L6.84159 10.5439C6.82534 10.2267 7.06933 9.95643 7.38658 9.94019C7.70372 9.92409 7.97408 10.1679 7.99028 10.4851L8.26285 15.8142C8.27909 16.1314 8.03511 16.4017 7.71786 16.4179C7.70791 16.4184 7.69789 16.4187 7.68801 16.4187Z" fill="url(#paint4_linear)"/>
<path d="M1.53076 9.33276L9.61346 17.4155H14.0901C14.5268 17.4155 14.9028 17.1076 14.989 16.6796L16.7411 7.98417H1.25903L1.53076 9.33276Z" fill="url(#paint5_linear)"/>
<path d="M16.5623 9.326H1.43771C0.643711 9.326 0 8.68232 0 7.88832C0 7.09431 0.643711 6.4506 1.43771 6.4506H16.5623C17.3563 6.4506 18 7.09431 18 7.88832C18 8.68232 17.3563 9.326 16.5623 9.326Z" fill="url(#paint6_linear)"/>
<path d="M4.07335 9.05759C4.71914 9.05759 5.24265 8.53408 5.24265 7.8883C5.24265 7.24251 4.71914 6.719 4.07335 6.719C3.42757 6.719 2.90405 7.24251 2.90405 7.8883C2.90405 8.53408 3.42757 9.05759 4.07335 9.05759Z" fill="url(#paint7_linear)"/>
<path d="M4.07338 8.88501C4.62385 8.88501 5.07009 8.43876 5.07009 7.88829C5.07009 7.33782 4.62385 6.89158 4.07338 6.89158C3.52291 6.89158 3.07666 7.33782 3.07666 7.88829C3.07666 8.43876 3.52291 8.88501 4.07338 8.88501Z" fill="url(#paint8_linear)"/>
<path d="M5.39619 6.4506H4.12005L3.89453 6.90784L3.52029 7.66659C3.40445 7.90143 3.46404 8.17677 3.64805 8.345L4.62905 9.326H8.27155L5.39619 6.4506Z" fill="url(#paint9_linear)"/>
<path d="M3.64803 8.34501L4.18213 8.8791C4.68145 8.82489 5.07021 8.40207 5.07021 7.88829C5.07021 7.33778 4.6239 6.89147 4.07339 6.89147C4.01229 6.89147 3.95256 6.89727 3.89448 6.90782L3.52024 7.66656C3.40447 7.90144 3.46406 8.17675 3.64803 8.34501Z" fill="url(#paint10_linear)"/>
<path d="M4.03549 8.49617C3.95006 8.49617 3.86337 8.47708 3.78156 8.43668C3.49669 8.2962 3.37965 7.95139 3.52014 7.66655L6.85464 0.905477C6.99516 0.620606 7.33993 0.503535 7.6248 0.64409C7.90968 0.784574 8.02671 1.12939 7.88619 1.41422L4.55173 8.1753C4.45157 8.37836 4.24759 8.49617 4.03549 8.49617Z" fill="url(#paint11_linear)"/>
<path d="M13.9267 9.05759C14.5725 9.05759 15.096 8.53408 15.096 7.8883C15.096 7.24251 14.5725 6.719 13.9267 6.719C13.281 6.719 12.7574 7.24251 12.7574 7.8883C12.7574 8.53408 13.281 9.05759 13.9267 9.05759Z" fill="url(#paint12_linear)"/>
<path d="M16.7439 9.31415L14.734 7.30427C14.6718 7.21841 14.5963 7.14293 14.5105 7.08074L13.8804 6.4506H12.5839L13.0619 7.3924L13.448 8.17533C13.4831 8.24652 13.5312 8.30699 13.5877 8.35579L14.558 9.32603H16.5622C16.6238 9.326 16.6844 9.32167 16.7439 9.31415Z" fill="url(#paint13_linear)"/>
<path d="M13.9266 8.88501C14.4771 8.88501 14.9234 8.43876 14.9234 7.88829C14.9234 7.33782 14.4771 6.89158 13.9266 6.89158C13.3762 6.89158 12.9299 7.33782 12.9299 7.88829C12.9299 8.43876 13.3762 8.88501 13.9266 8.88501Z" fill="url(#paint14_linear)"/>
<path d="M14.9234 7.88832C14.9234 7.3378 14.4771 6.89149 13.9265 6.89149C13.5566 6.89149 13.234 7.09315 13.062 7.3924L13.4481 8.17533C13.4833 8.24652 13.5313 8.30699 13.5878 8.35579L14.1015 8.86949C14.5686 8.78673 14.9234 8.3791 14.9234 7.88832Z" fill="url(#paint15_linear)"/>
<path d="M13.9644 8.49617C14.0498 8.49617 14.1365 8.47708 14.2183 8.43668C14.5032 8.2962 14.6202 7.95139 14.4797 7.66655L11.1452 0.905477C11.0047 0.620606 10.6599 0.503535 10.3751 0.64409C10.0902 0.784574 9.97314 1.12939 10.1137 1.41422L13.4482 8.1753C13.5483 8.37836 13.7523 8.49617 13.9644 8.49617Z" fill="url(#paint16_linear)"/>
</g>
<defs>
<linearGradient id="paint0_linear" x1="8.99986" y1="13.0092" x2="8.99986" y2="18.0777" gradientUnits="userSpaceOnUse">
<stop stop-color="#FF4C54"/>
<stop offset="1" stop-color="#BE3F45"/>
</linearGradient>
<linearGradient id="paint1_linear" x1="13.0617" y1="12.7043" x2="15.012" y2="17.7728" gradientUnits="userSpaceOnUse">
<stop stop-color="#FF4C54"/>
<stop offset="1" stop-color="#BE3F45"/>
</linearGradient>
<linearGradient id="paint2_linear" x1="4.57251" y1="12.7043" x2="6.52247" y2="17.7728" gradientUnits="userSpaceOnUse">
<stop stop-color="#FF4C54"/>
<stop offset="1" stop-color="#BE3F45"/>
</linearGradient>
<linearGradient id="paint3_linear" x1="10.3515" y1="12.8366" x2="11.7741" y2="17.9051" gradientUnits="userSpaceOnUse">
<stop stop-color="#FF4C54"/>
<stop offset="1" stop-color="#BE3F45"/>
</linearGradient>
<linearGradient id="paint4_linear" x1="7.45589" y1="12.8365" x2="8.87857" y2="17.905" gradientUnits="userSpaceOnUse">
<stop stop-color="#FF4C54"/>
<stop offset="1" stop-color="#BE3F45"/>
</linearGradient>
<linearGradient id="paint5_linear" x1="8.99986" y1="15.869" x2="8.99986" y2="3.99355" gradientUnits="userSpaceOnUse">
<stop stop-color="#BE3F45" stop-opacity="0"/>
<stop offset="1" stop-color="#BE3F45"/>
</linearGradient>
<linearGradient id="paint6_linear" x1="8.99981" y1="7.37216" x2="8.99981" y2="10.1063" gradientUnits="userSpaceOnUse">
<stop stop-color="#FFB92D"/>
<stop offset="1" stop-color="#F59500"/>
</linearGradient>
<linearGradient id="paint7_linear" x1="4.32207" y1="8.13733" x2="2.60223" y2="6.41749" gradientUnits="userSpaceOnUse">
<stop stop-color="#FFB92D"/>
<stop offset="1" stop-color="#F59500"/>
</linearGradient>
<linearGradient id="paint8_linear" x1="3.86114" y1="7.67643" x2="5.32758" y2="9.14251" gradientUnits="userSpaceOnUse">
<stop stop-color="#F2F2F2"/>
<stop offset="1" stop-color="#C3C3C3"/>
</linearGradient>
<linearGradient id="paint9_linear" x1="6.46508" y1="9.34151" x2="0.950486" y2="3.82692" gradientUnits="userSpaceOnUse">
<stop stop-color="#BE3F45" stop-opacity="0"/>
<stop offset="1" stop-color="#BE3F45"/>
</linearGradient>
<linearGradient id="paint10_linear" x1="5.66065" y1="9.21243" x2="3.64258" y2="7.19436" gradientUnits="userSpaceOnUse">
<stop stop-color="#C3C3C3" stop-opacity="0"/>
<stop offset="1" stop-color="#777777"/>
</linearGradient>
<linearGradient id="paint11_linear" x1="5.34855" y1="4.33945" x2="6.20159" y2="4.82367" gradientUnits="userSpaceOnUse">
<stop stop-color="#FFF465"/>
<stop offset="1" stop-color="#FFE600"/>
</linearGradient>
<linearGradient id="paint12_linear" x1="13.6776" y1="8.13733" x2="15.3975" y2="6.41749" gradientUnits="userSpaceOnUse">
<stop stop-color="#FFB92D"/>
<stop offset="1" stop-color="#F59500"/>
</linearGradient>
<linearGradient id="paint13_linear" x1="15.5727" y1="9.23462" x2="10.741" y2="4.40296" gradientUnits="userSpaceOnUse">
<stop stop-color="#BE3F45" stop-opacity="0"/>
<stop offset="1" stop-color="#BE3F45"/>
</linearGradient>
<linearGradient id="paint14_linear" x1="14.1385" y1="7.67643" x2="12.6721" y2="9.14251" gradientUnits="userSpaceOnUse">
<stop stop-color="#F2F2F2"/>
<stop offset="1" stop-color="#C3C3C3"/>
</linearGradient>
<linearGradient id="paint15_linear" x1="15.3479" y1="9.00953" x2="13.2769" y2="6.93851" gradientUnits="userSpaceOnUse">
<stop stop-color="#C3C3C3" stop-opacity="0"/>
<stop offset="1" stop-color="#777777"/>
</linearGradient>
<linearGradient id="paint16_linear" x1="12.6509" y1="4.33945" x2="11.7979" y2="4.82367" gradientUnits="userSpaceOnUse">
<stop stop-color="#FFE600"/>
<stop offset="1" stop-color="#FFF465"/>
</linearGradient>
<clipPath id="clip0">
<rect width="18" height="18" fill="white"/>
</clipPath>
</defs>
</svg>
