<svg width="62" height="25" viewBox="0 0 62 25" fill="none" xmlns="http://www.w3.org/2000/svg">
<path d="M62 0H5C2.23857 0 0 2.23858 0 5V25H54C58.4183 25 62 21.4183 62 17V0Z" fill="#EF3A50"/>
<path d="M11.348 8.2C12.1973 8.2 12.9347 8.34 13.56 8.62C14.1947 8.9 14.68 9.30133 15.016 9.824C15.352 10.3467 15.52 10.9673 15.52 11.686C15.52 12.3953 15.352 13.016 15.016 13.548C14.68 14.0707 14.1947 14.472 13.56 14.752C12.9347 15.032 12.1973 15.172 11.348 15.172H9.136V18H7.316V8.2H11.348ZM11.264 13.632C12.0573 13.632 12.6593 13.464 13.07 13.128C13.4807 12.792 13.686 12.3113 13.686 11.686C13.686 11.0607 13.4807 10.58 13.07 10.244C12.6593 9.908 12.0573 9.74 11.264 9.74H9.136V13.632H11.264ZM18.8991 11.616C19.4031 10.832 20.2898 10.44 21.5591 10.44V12.106C21.4098 12.078 21.2745 12.064 21.1531 12.064C20.4718 12.064 19.9398 12.2647 19.5571 12.666C19.1745 13.058 18.9831 13.6273 18.9831 14.374V18H17.2331V10.524H18.8991V11.616ZM26.4673 18.098C25.7113 18.098 25.03 17.9347 24.4233 17.608C23.8166 17.2813 23.3406 16.8287 22.9953 16.25C22.6593 15.662 22.4913 14.9993 22.4913 14.262C22.4913 13.5247 22.6593 12.8667 22.9953 12.288C23.3406 11.7093 23.8166 11.2567 24.4233 10.93C25.03 10.6033 25.7113 10.44 26.4673 10.44C27.2326 10.44 27.9186 10.6033 28.5253 10.93C29.132 11.2567 29.6033 11.7093 29.9393 12.288C30.2846 12.8667 30.4573 13.5247 30.4573 14.262C30.4573 14.9993 30.2846 15.662 29.9393 16.25C29.6033 16.8287 29.132 17.2813 28.5253 17.608C27.9186 17.9347 27.2326 18.098 26.4673 18.098ZM26.4673 16.6C27.1113 16.6 27.6433 16.3853 28.0633 15.956C28.4833 15.5267 28.6933 14.962 28.6933 14.262C28.6933 13.562 28.4833 12.9973 28.0633 12.568C27.6433 12.1387 27.1113 11.924 26.4673 11.924C25.8233 11.924 25.2913 12.1387 24.8713 12.568C24.4606 12.9973 24.2553 13.562 24.2553 14.262C24.2553 14.962 24.4606 15.5267 24.8713 15.956C25.2913 16.3853 25.8233 16.6 26.4673 16.6ZM41.6988 10.44C42.6414 10.44 43.3881 10.7153 43.9388 11.266C44.4894 11.8073 44.7648 12.624 44.7648 13.716V18H43.0148V13.94C43.0148 13.2867 42.8701 12.7967 42.5808 12.47C42.2914 12.134 41.8761 11.966 41.3348 11.966C40.7468 11.966 40.2754 12.162 39.9208 12.554C39.5661 12.9367 39.3888 13.4873 39.3888 14.206V18H37.6388V13.94C37.6388 13.2867 37.4941 12.7967 37.2048 12.47C36.9154 12.134 36.5001 11.966 35.9588 11.966C35.3614 11.966 34.8854 12.1573 34.5308 12.54C34.1854 12.9227 34.0128 13.478 34.0128 14.206V18H32.2627V10.524H33.9287V11.476C34.2087 11.14 34.5588 10.8833 34.9788 10.706C35.3988 10.5287 35.8654 10.44 36.3788 10.44C36.9388 10.44 37.4334 10.5473 37.8628 10.762C38.3014 10.9673 38.6468 11.2753 38.8988 11.686C39.2068 11.294 39.6034 10.9907 40.0888 10.776C40.5741 10.552 41.1108 10.44 41.6988 10.44ZM50.5614 18.098C49.8054 18.098 49.1241 17.9347 48.5174 17.608C47.9107 17.2813 47.4347 16.8287 47.0894 16.25C46.7534 15.662 46.5854 14.9993 46.5854 14.262C46.5854 13.5247 46.7534 12.8667 47.0894 12.288C47.4347 11.7093 47.9107 11.2567 48.5174 10.93C49.1241 10.6033 49.8054 10.44 50.5614 10.44C51.3267 10.44 52.0127 10.6033 52.6194 10.93C53.2261 11.2567 53.6974 11.7093 54.0334 12.288C54.3787 12.8667 54.5514 13.5247 54.5514 14.262C54.5514 14.9993 54.3787 15.662 54.0334 16.25C53.6974 16.8287 53.2261 17.2813 52.6194 17.608C52.0127 17.9347 51.3267 18.098 50.5614 18.098ZM50.5614 16.6C51.2054 16.6 51.7374 16.3853 52.1574 15.956C52.5774 15.5267 52.7874 14.962 52.7874 14.262C52.7874 13.562 52.5774 12.9973 52.1574 12.568C51.7374 12.1387 51.2054 11.924 50.5614 11.924C49.9174 11.924 49.3854 12.1387 48.9654 12.568C48.5547 12.9973 48.3494 13.562 48.3494 14.262C48.3494 14.962 48.5547 15.5267 48.9654 15.956C49.3854 16.3853 49.9174 16.6 50.5614 16.6Z" fill="white"/>
</svg>
