<svg width="27" height="23" viewBox="0 0 27 23" fill="none" xmlns="http://www.w3.org/2000/svg">
<path d="M3.40616 19.5701C2.83339 20.1429 2.83339 21.0715 3.40616 21.6443C3.97893 22.2171 4.90757 22.2171 5.48034 21.6443L13.6372 13.4874L21.7941 21.6443C22.3669 22.2171 23.2955 22.2171 23.8683 21.6443C24.4411 21.0715 24.4411 20.1429 23.8683 19.5701L15.7114 11.4132L23.8683 3.25632C24.4411 2.68355 24.4411 1.75491 23.8683 1.18214C23.2956 0.609371 22.3669 0.609371 21.7941 1.18214L13.6372 9.33906L5.48032 1.18215C4.90755 0.609382 3.97891 0.609381 3.40614 1.18215C2.83337 1.75492 2.83337 2.68356 3.40614 3.25633L11.563 11.4132L3.40616 19.5701Z" fill="#F68B1E"/>
</svg>
